labs/lab00/src/p0_punto3/p0_pt3_wave.vcd
$date
	Wed Mar  4 13:01:29 2026
$end
$version
	Icarus Verilog
$end
$timescale
	1ps
$end
$scope module tb_p0_pt3 $end
$var wire 1 ! tx $end
$var wire 1 " done $end
$var wire 1 # busy $end
$var parameter 32 $ BIT_DURATION $end
$var parameter 32 % CLK_PERIOD $end
$var reg 1 & clk $end
$var reg 8 ' data_in [7:0] $end
$var reg 1 ( rst $end
$var reg 1 ) start $end
$scope module dut $end
$var wire 1 & clk $end
$var wire 8 * data_in [7:0] $end
$var wire 1 ( rst $end
$var wire 1 ) start $end
$var parameter 32 + CLKS_PER_BIT $end
$var parameter 2 , DONE $end
$var parameter 2 - IDLE $end
$var parameter 2 . LOAD $end
$var parameter 2 / TRANSMIT $end
$var reg 3 0 bit_count [2:0] $end
$var reg 3 1 bit_count_next [2:0] $end
$var reg 1 # busy $end
$var reg 1 " done $end
$var reg 8 2 shift_next [7:0] $end
$var reg 8 3 shift_reg [7:0] $end
$var reg 2 4 state_next [1:0] $end
$var reg 2 5 state_reg [1:0] $end
$var reg 3 6 tick_cnt [2:0] $end
$var reg 3 7 tick_next [2:0] $end
$var reg 1 ! tx $end
$upscope $end
$upscope $end
$enddefinitions $end
$comment Show the parameter values. $end
$dumpall
b10 /
b1 .
b0 -
b11 ,
b1000 +
b1010 %
b1000 $
$end
#0
$dumpvars
b0 7
b0 6
b0 5
b0 4
b0 3
b0 2
b0 1
b0 0
b0 *
0)
1(
b0 '
0&
0#
0"
1!
$end
#5000
1&
#10000
0&
#15000
1&
#20000
0&
#25000
1&
#30000
0&
0(
#35000
1&
#40000
0&
#45000
1&
#50000
b1 4
0&
1)
b10100101 '
b10100101 *
#55000
b10 4
b10100101 2
1#
b1 5
1&
#60000
1#
b10100101 2
b10 4
0&
0)
#65000
b1 7
1#
b10100101 3
b10 5
1&
#70000
0&
#75000
b10 7
1#
b1 6
1&
#80000
0&
#85000
b11 7
1#
b10 6
1&
#90000
0&
#95000
b100 7
1#
b11 6
1&
#100000
0&
#105000
b101 7
1#
b100 6
1&
#110000
0&
#115000
b110 7
1#
b101 6
1&
#120000
0&
#125000
b111 7
1#
b110 6
1&
#130000
0&
#135000
b1 1
b1010010 2
b0 7
1#
b111 6
1&
#140000
0&
#145000
b1 7
0!
1#
b0 6
b1 0
b1010010 3
1&
#150000
0&
#155000
b10 7
1#
0!
b1 6
1&
#160000
0&
#165000
b11 7
1#
0!
b10 6
1&
#170000
0&
#175000
b100 7
1#
0!
b11 6
1&
#180000
0&
#185000
b101 7
1#
0!
b100 6
1&
#190000
0&
#195000
b110 7
1#
0!
b101 6
1&
#200000
0&
#205000
b111 7
1#
0!
b110 6
1&
#210000
0&
#215000
b10 1
b101001 2
b0 7
1#
0!
b111 6
1&
#220000
0&
#225000
b1 7
1#
1!
b0 6
b10 0
b101001 3
1&
#230000
0&
#235000
b10 7
1#
b1 6
1&
#240000
0&
#245000
b11 7
1#
b10 6
1&
#250000
0&
#255000
b100 7
1#
b11 6
1&
#260000
0&
#265000
b101 7
1#
b100 6
1&
#270000
0&
#275000
b110 7
1#
b101 6
1&
#280000
0&
#285000
b111 7
1#
b110 6
1&
#290000
0&
#295000
b11 1
b10100 2
b0 7
1#
b111 6
1&
#300000
0&
#305000
b1 7
0!
1#
b0 6
b11 0
b10100 3
1&
#310000
0&
#315000
b10 7
1#
0!
b1 6
1&
#320000
0&
#325000
b11 7
1#
0!
b10 6
1&
#330000
0&
#335000
b100 7
1#
0!
b11 6
1&
#340000
0&
#345000
b101 7
1#
0!
b100 6
1&
#350000
0&
#355000
b110 7
1#
0!
b101 6
1&
#360000
0&
#365000
b111 7
1#
0!
b110 6
1&
#370000
0&
#375000
b100 1
b1010 2
b0 7
1#
0!
b111 6
1&
#380000
0&
#385000
b1 7
1#
0!
b0 6
b100 0
b1010 3
1&
#390000
0&
#395000
b10 7
1#
0!
b1 6
1&
#400000
0&
#405000
b11 7
1#
0!
b10 6
1&
#410000
0&
#415000
b100 7
1#
0!
b11 6
1&
#420000
0&
#425000
b101 7
1#
0!
b100 6
1&
#430000
0&
#435000
b110 7
1#
0!
b101 6
1&
#440000
0&
#445000
b111 7
1#
0!
b110 6
1&
#450000
0&
#455000
b101 1
b101 2
b0 7
1#
0!
b111 6
1&
#460000
0&
#465000
b1 7
1#
1!
b0 6
b101 0
b101 3
1&
#470000
0&
#475000
b10 7
1#
b1 6
1&
#480000
0&
#485000
b11 7
1#
b10 6
1&
#490000
0&
#495000
b100 7
1#
b11 6
1&
#500000
0&
#505000
b101 7
1#
b100 6
1&
#510000
0&
#515000
b110 7
1#
b101 6
1&
#520000
0&
#525000
b111 7
1#
b110 6
1&
#530000
0&
#535000
b110 1
b10 2
b0 7
1#
b111 6
1&
#540000
0&
#545000
b1 7
0!
1#
b0 6
b110 0
b10 3
1&
#550000
0&
#555000
b10 7
1#
0!
b1 6
1&
#560000
0&
#565000
b11 7
1#
0!
b10 6
1&
#570000
0&
#575000
b100 7
1#
0!
b11 6
1&
#580000
0&
#585000
b101 7
1#
0!
b100 6
1&
#590000
0&
#595000
b110 7
1#
0!
b101 6
1&
#600000
0&
#605000
b111 7
1#
0!
b110 6
1&
#610000
0&
#615000
b111 1
b1 2
b0 7
1#
0!
b111 6
1&
#620000
0&
#625000
b1 7
1#
1!
b0 6
b111 0
b1 3
1&
#630000
0&
#635000
b10 7
1#
b1 6
1&
#640000
0&
#645000
b11 7
1#
b10 6
1&
#650000
0&
#655000
b100 7
1#
b11 6
1&
#660000
0&
#665000
b101 7
1#
b100 6
1&
#670000
0&
#675000
b110 7
1#
b101 6
1&
#680000
0&
#685000
b111 7
1#
b110 6
1&
#690000
0&
#695000
b11 4
b0 2
b0 7
1#
b111 6
1&
#700000
0&
#705000
b0 4
1"
0#
b0 6
b0 3
b11 5
1&
#710000
0&
#715000
0"
b0 5
1&
#720000
0&
#725000
1&
#730000
0&
#735000
1&
#740000
0&
#745000
1&
#750000
0&
#755000
1&
#760000
0&
#765000
1&
#770000
0&
#775000
1&
#780000
0&
#785000
1&
#790000
0&
#795000
1&
#800000
0&
#805000
1&
#810000
0&
#815000
1&
#820000
0&
#825000
1&
#830000
0&
#835000
1&
#840000
0&
#845000
1&
#850000
0&
#855000
b0 1
b111100 2
1#
b1 5
b10 4
1&
1)
b111100 '
b111100 *
#860000
0&
#865000
b1 7
0!
b0 0
b111100 3
b10 5
1#
b0 1
b111100 2
b10 4
1&
0)
#870000
0&
#875000
b10 7
1#
0!
b1 6
1&
#880000
0&
#885000
b11 7
1#
0!
b10 6
1&
#890000
0&
#895000
b100 7
1#
0!
b11 6
1&
#900000
0&
#905000
b101 7
1#
0!
b100 6
1&
#910000
0&
#915000
b110 7
1#
0!
b101 6
1&
#920000
0&
#925000
b111 7
1#
0!
b110 6
1&
#930000
0&
#935000
b1 1
b11110 2
b0 7
1#
0!
b111 6
1&
#940000
0&
#945000
b1 7
1#
0!
b0 6
b1 0
b11110 3
1&
#950000
0&
#955000
b10 7
1#
0!
b1 6
1&
#960000
0&
#965000
b11 7
1#
0!
b10 6
1&
#970000
0&
#975000
b100 7
1#
0!
b11 6
1&
#980000
0&
#985000
b101 7
1#
0!
b100 6
1&
#990000
0&
#995000
b110 7
1#
0!
b101 6
1&
#1000000
0&
#1005000
b111 7
1#
0!
b110 6
1&
#1010000
0&
#1015000
b10 1
b1111 2
b0 7
1#
0!
b111 6
1&
#1020000
0&
#1025000
b1 7
1#
1!
b0 6
b10 0
b1111 3
1&
#1030000
0&
#1035000
b10 7
1#
b1 6
1&
#1040000
0&
#1045000
b11 7
1#
b10 6
1&
#1050000
0&
#1055000
b100 7
1#
b11 6
1&
#1060000
0&
#1065000
b101 7
1#
b100 6
1&
#1070000
0&
#1075000
b110 7
1#
b101 6
1&
#1080000
0&
#1085000
b111 7
1#
b110 6
1&
#1090000
0&
#1095000
b11 1
b111 2
b0 7
1#
b111 6
1&
#1100000
0&
#1105000
b1 7
1#
b0 6
b11 0
b111 3
1&
#1110000
0&
#1115000
b10 7
1#
b1 6
1&
#1120000
0&
#1125000
b11 7
1#
b10 6
1&
#1130000
0&
#1135000
b100 7
1#
b11 6
1&
#1140000
0&
#1145000
b101 7
1#
b100 6
1&
#1150000
0&
#1155000
b110 7
1#
b101 6
1&
#1160000
0&
#1165000
b111 7
1#
b110 6
1&
#1170000
0&
#1175000
b100 1
b11 2
b0 7
1#
b111 6
1&
#1180000
0&
#1185000
b1 7
1#
b0 6
b100 0
b11 3
1&
#1190000
0&
#1195000
b10 7
1#
b1 6
1&
#1200000
0&
#1205000
b11 7
1#
b10 6
1&
#1210000
0&
#1215000
b100 7
1#
b11 6
1&
#1220000
0&
#1225000
b101 7
1#
b100 6
1&
#1230000
0&
#1235000
b110 7
1#
b101 6
1&
#1240000
0&
#1245000
b111 7
1#
b110 6
1&
#1250000
0&
#1255000
b101 1
b1 2
b0 7
1#
b111 6
1&
#1260000
0&
#1265000
b1 7
1#
b0 6
b101 0
b1 3
1&
#1270000
0&
#1275000
b10 7
1#
b1 6
1&
#1280000
0&
#1285000
b11 7
1#
b10 6
1&
#1290000
0&
#1295000
b100 7
1#
b11 6
1&
#1300000
0&
#1305000
b101 7
1#
b100 6
1&
#1310000
0&
#1315000
b110 7
1#
b101 6
1&
#1320000
0&
#1325000
b111 7
1#
b110 6
1&
#1330000
0&
#1335000
b110 1
b0 2
b0 7
1#
b111 6
1&
#1340000
0&
#1345000
b1 7
0!
1#
b0 6
b110 0
b0 3
1&
#1350000
0&
#1355000
b10 7
1#
0!
b1 6
1&
#1360000
0&
#1365000
b11 7
1#
0!
b10 6
1&
#1370000
0&
#1375000
b100 7
1#
0!
b11 6
1&
#1380000
0&
#1385000
b101 7
1#
0!
b100 6
1&
#1390000
0&
#1395000
b110 7
1#
0!
b101 6
1&
#1400000
0&
#1405000
b111 7
1#
0!
b110 6
1&
#1410000
0&
#1415000
b111 1
b0 7
1#
0!
b111 6
1&
#1420000
0&
#1425000
b1 7
1#
0!
b0 6
b111 0
1&
#1430000
0&
#1435000
b10 7
1#
0!
b1 6
1&
#1440000
0&
#1445000
b11 7
1#
0!
b10 6
1&
#1450000
0&
#1455000
b100 7
1#
0!
b11 6
1&
#1460000
0&
#1465000
b101 7
1#
0!
b100 6
1&
#1470000
0&
#1475000
b110 7
1#
0!
b101 6
1&
#1480000
0&
#1485000
b111 7
1#
0!
b110 6
1&
#1490000
0&
#1495000
b11 4
b0 7
1#
0!
b111 6
1&
#1500000
0&
#1505000
b0 4
1"
0#
1!
b0 6
b11 5
1&
#1510000
0&
#1515000
0"
b0 5
1&
