Practica001_Entrega/src/i2c_master_write.vcd
$date
	Tue May  5 21:44:29 2026
$end
$version
	Icarus Verilog
$end
$timescale
	1ps
$end
$scope module tb_i2c_master_write $end
$var wire 1 ! sda $end
$var wire 1 " slave_drive_ack $end
$var wire 1 # scl $end
$var wire 1 $ done $end
$var wire 1 % busy $end
$var parameter 32 & CLKS_PER_HALF_SCL $end
$var parameter 32 ' CLK_PERIOD $end
$var parameter 3 ( WAIT_ACK_1 $end
$var parameter 3 ) WAIT_ACK_2 $end
$var reg 7 * address [6:0] $end
$var reg 1 + clk $end
$var reg 8 , data_in [7:0] $end
$var reg 1 - rst $end
$var reg 1 . start $end
$scope module dut $end
$var wire 7 / address [6:0] $end
$var wire 1 + clk $end
$var wire 8 0 data_in [7:0] $end
$var wire 1 - rst $end
$var wire 1 ! sda $end
$var wire 1 1 sda_in $end
$var wire 1 . start $end
$var wire 3 2 state [2:0] $end
$var wire 1 3 scl_tick $end
$var parameter 32 4 CLKS_PER_HALF_SCL $end
$var parameter 32 5 CLK_CNT_W $end
$var parameter 3 6 DONE $end
$var parameter 3 7 IDLE $end
$var parameter 3 8 SEND_ADDRESS $end
$var parameter 3 9 SEND_DATA $end
$var parameter 3 : START $end
$var parameter 3 ; STOP $end
$var parameter 3 < WAIT_ACK_1 $end
$var parameter 3 = WAIT_ACK_2 $end
$var reg 1 > ack_received $end
$var reg 1 ? ack_received_next $end
$var reg 7 @ address_next [6:0] $end
$var reg 7 A address_reg [6:0] $end
$var reg 3 B bit_count [2:0] $end
$var reg 3 C bit_count_next [2:0] $end
$var reg 1 % busy $end
$var reg 3 D clk_count [2:0] $end
$var reg 3 E clk_count_next [2:0] $end
$var reg 8 F data_next [7:0] $end
$var reg 8 G data_reg [7:0] $end
$var reg 1 $ done $end
$var reg 1 H phase_next $end
$var reg 1 I phase_reg $end
$var reg 1 # scl $end
$var reg 1 J sda_oe $end
$var reg 1 K sda_out $end
$var reg 8 L shift_next [7:0] $end
$var reg 8 M shift_reg [7:0] $end
$var reg 3 N state_next [2:0] $end
$var reg 3 O state_reg [2:0] $end
$var reg 1 P stop_phase_next $end
$var reg 1 Q stop_phase_reg $end
$upscope $end
$upscope $end
$enddefinitions $end
$comment Show the parameter values. $end
$dumpall
b101 =
b11 <
b110 ;
b1 :
b100 9
b10 8
b0 7
b111 6
b11 5
b101 4
b101 )
b11 (
b1010 '
b101 &
$end
#0
$dumpvars
0Q
0P
b0 O
b0 N
b0 M
b0 L
0K
0J
0I
0H
b0 G
b0 F
b1 E
b0 D
b0 C
b0 B
b0 A
b0 @
0?
0>
03
b0 2
11
b10100101 0
b1010000 /
0.
1-
b10100101 ,
0+
b1010000 *
0%
0$
1#
0"
1!
$end
#5000
1+
#10000
0+
#15000
1+
#20000
0+
#25000
1+
#30000
0+
#35000
1+
#40000
0+
0-
#45000
b10 E
b1 D
1+
#50000
0+
#55000
b11 E
b10 D
1+
#60000
0+
#65000
b100 E
b11 D
1+
#70000
b1 N
b10100101 F
b1010000 @
0+
1.
#75000
01
0!
b10 N
b111 C
b10100000 L
1J
1%
b0 E
13
b100 D
b10100101 G
b1010000 A
b1 2
b1 O
1+
#80000
1J
1%
b111 C
b10100000 L
b10 N
0+
0.
#85000
11
1!
0#
0J
1%
b1 E
03
b0 D
b111 B
b10100000 M
b10 2
b10 O
1+
#90000
0+
#95000
1%
0#
b10 E
b1 D
1+
#100000
0+
#105000
1%
0#
b11 E
b10 D
1+
#110000
0+
#115000
1%
0#
b100 E
b11 D
1+
#120000
0+
#125000
1H
1%
0#
b0 E
13
b100 D
1+
#130000
0+
#135000
1%
1#
b1 E
1I
03
b0 D
1+
#140000
0+
#145000
1%
b10 E
b1 D
1+
#150000
0+
#155000
1%
b11 E
b10 D
1+
#160000
0+
#165000
1%
b100 E
b11 D
1+
#170000
0+
#175000
b110 C
b1000000 L
0H
1%
b0 E
13
b100 D
1+
#180000
0+
#185000
01
0!
1J
0#
1%
b1 E
0I
03
b0 D
b110 B
b1000000 M
1+
#190000
0+
#195000
1J
1%
0#
b10 E
b1 D
1+
#200000
0+
#205000
1J
1%
0#
b11 E
b10 D
1+
#210000
0+
#215000
1J
1%
0#
b100 E
b11 D
1+
#220000
0+
#225000
1H
1J
1%
0#
b0 E
13
b100 D
1+
#230000
0+
#235000
1J
1%
1#
b1 E
1I
03
b0 D
1+
#240000
0+
#245000
1J
1%
b10 E
b1 D
1+
#250000
0+
#255000
1J
1%
b11 E
b10 D
1+
#260000
0+
#265000
1J
1%
b100 E
b11 D
1+
#270000
0+
#275000
b101 C
b10000000 L
0H
1J
1%
b0 E
13
b100 D
1+
#280000
0+
#285000
11
1!
0#
0J
1%
b1 E
0I
03
b0 D
b101 B
b10000000 M
1+
#290000
0+
#295000
1%
0#
b10 E
b1 D
1+
#300000
0+
#305000
1%
0#
b11 E
b10 D
1+
#310000
0+
#315000
1%
0#
b100 E
b11 D
1+
#320000
0+
#325000
1H
1%
0#
b0 E
13
b100 D
1+
#330000
0+
#335000
1%
1#
b1 E
1I
03
b0 D
1+
#340000
0+
#345000
1%
b10 E
b1 D
1+
#350000
0+
#355000
1%
b11 E
b10 D
1+
#360000
0+
#365000
1%
b100 E
b11 D
1+
#370000
0+
#375000
b100 C
b0 L
0H
1%
b0 E
13
b100 D
1+
#380000
0+
#385000
01
0!
1J
0#
1%
b1 E
0I
03
b0 D
b100 B
b0 M
1+
#390000
0+
#395000
1J
1%
0#
b10 E
b1 D
1+
#400000
0+
#405000
1J
1%
0#
b11 E
b10 D
1+
#410000
0+
#415000
1J
1%
0#
b100 E
b11 D
1+
#420000
0+
#425000
1H
1J
1%
0#
b0 E
13
b100 D
1+
#430000
0+
#435000
1J
1%
1#
b1 E
1I
03
b0 D
1+
#440000
0+
#445000
1J
1%
b10 E
b1 D
1+
#450000
0+
#455000
1J
1%
b11 E
b10 D
1+
#460000
0+
#465000
1J
1%
b100 E
b11 D
1+
#470000
0+
#475000
b11 C
0H
1J
1%
b0 E
13
b100 D
1+
#480000
0+
#485000
0#
1J
1%
b1 E
0I
03
b0 D
b11 B
1+
#490000
0+
#495000
1J
1%
0#
b10 E
b1 D
1+
#500000
0+
#505000
1J
1%
0#
b11 E
b10 D
1+
#510000
0+
#515000
1J
1%
0#
b100 E
b11 D
1+
#520000
0+
#525000
1H
1J
1%
0#
b0 E
13
b100 D
1+
#530000
0+
#535000
1J
1%
1#
b1 E
1I
03
b0 D
1+
#540000
0+
#545000
1J
1%
b10 E
b1 D
1+
#550000
0+
#555000
1J
1%
b11 E
b10 D
1+
#560000
0+
#565000
1J
1%
b100 E
b11 D
1+
#570000
0+
#575000
b10 C
0H
1J
1%
b0 E
13
b100 D
1+
#580000
0+
#585000
0#
1J
1%
b1 E
0I
03
b0 D
b10 B
1+
#590000
0+
#595000
1J
1%
0#
b10 E
b1 D
1+
#600000
0+
#605000
1J
1%
0#
b11 E
b10 D
1+
#610000
0+
#615000
1J
1%
0#
b100 E
b11 D
1+
#620000
0+
#625000
1H
1J
1%
0#
b0 E
13
b100 D
1+
#630000
0+
#635000
1J
1%
1#
b1 E
1I
03
b0 D
1+
#640000
0+
#645000
1J
1%
b10 E
b1 D
1+
#650000
0+
#655000
1J
1%
b11 E
b10 D
1+
#660000
0+
#665000
1J
1%
b100 E
b11 D
1+
#670000
0+
#675000
b1 C
0H
1J
1%
b0 E
13
b100 D
1+
#680000
0+
#685000
0#
1J
1%
b1 E
0I
03
b0 D
b1 B
1+
#690000
0+
#695000
1J
1%
0#
b10 E
b1 D
1+
#700000
0+
#705000
1J
1%
0#
b11 E
b10 D
1+
#710000
0+
#715000
1J
1%
0#
b100 E
b11 D
1+
#720000
0+
#725000
1H
1J
1%
0#
b0 E
13
b100 D
1+
#730000
0+
#735000
1J
1%
1#
b1 E
1I
03
b0 D
1+
#740000
0+
#745000
1J
1%
b10 E
b1 D
1+
#750000
0+
#755000
1J
1%
b11 E
b10 D
1+
#760000
0+
#765000
1J
1%
b100 E
b11 D
1+
#770000
0+
#775000
b0 C
0H
1J
1%
b0 E
13
b100 D
1+
#780000
0+
#785000
0#
1J
1%
b1 E
0I
03
b0 D
b0 B
1+
#790000
0+
#795000
1J
1%
0#
b10 E
b1 D
1+
#800000
0+
#805000
1J
1%
0#
b11 E
b10 D
1+
#810000
0+
#815000
1J
1%
0#
b100 E
b11 D
1+
#820000
0+
#825000
1H
1J
1%
0#
b0 E
13
b100 D
1+
#830000
0+
#835000
1J
1%
1#
b1 E
1I
03
b0 D
1+
#840000
0+
#845000
1J
1%
b10 E
b1 D
1+
#850000
0+
#855000
1J
1%
b11 E
b10 D
1+
#860000
0+
#865000
1J
1%
b100 E
b11 D
1+
#870000
0+
#875000
b11 N
0H
1J
1%
b0 E
13
b100 D
1+
#880000
0+
#885000
0#
0J
1%
b1 E
1"
0I
03
b0 D
b11 2
b11 O
1+
#890000
0+
#895000
1%
0#
b10 E
b1 D
1+
#900000
0+
#905000
1%
0#
b11 E
b10 D
1+
#910000
0+
#915000
1%
0#
b100 E
b11 D
1+
#920000
0+
#925000
1H
1%
0#
b0 E
13
b100 D
1+
#930000
0+
#935000
1%
1#
b1 E
1I
03
b0 D
1+
#940000
0+
#945000
1%
b10 E
b1 D
1+
#950000
0+
#955000
1%
b11 E
b10 D
1+
#960000
0+
#965000
1%
b100 E
b11 D
1+
#970000
0+
#975000
b100 N
b111 C
b10100101 L
1?
0H
1%
b0 E
13
b100 D
1+
#980000
0+
#985000
11
1!
0#
1%
b1 E
0"
1>
0I
03
b0 D
b111 B
b10100101 M
b100 2
b100 O
1+
#990000
0+
#995000
1%
0#
b10 E
b1 D
1+
#1000000
0+
#1005000
1%
0#
b11 E
b10 D
1+
#1010000
0+
#1015000
1%
0#
b100 E
b11 D
1+
#1020000
0+
#1025000
1H
1%
0#
b0 E
13
b100 D
1+
#1030000
0+
#1035000
1%
1#
b1 E
1I
03
b0 D
1+
#1040000
0+
#1045000
1%
b10 E
b1 D
1+
#1050000
0+
#1055000
1%
b11 E
b10 D
1+
#1060000
0+
#1065000
1%
b100 E
b11 D
1+
#1070000
0+
#1075000
b110 C
b1001010 L
0H
1%
b0 E
13
b100 D
1+
#1080000
0+
#1085000
01
0!
1J
0#
1%
b1 E
0I
03
b0 D
b110 B
b1001010 M
1+
#1090000
0+
#1095000
1J
1%
0#
b10 E
b1 D
1+
#1100000
0+
#1105000
1J
1%
0#
b11 E
b10 D
1+
#1110000
0+
#1115000
1J
1%
0#
b100 E
b11 D
1+
#1120000
0+
#1125000
1H
1J
1%
0#
b0 E
13
b100 D
1+
#1130000
0+
#1135000
1J
1%
1#
b1 E
1I
03
b0 D
1+
#1140000
0+
#1145000
1J
1%
b10 E
b1 D
1+
#1150000
0+
#1155000
1J
1%
b11 E
b10 D
1+
#1160000
0+
#1165000
1J
1%
b100 E
b11 D
1+
#1170000
0+
#1175000
b101 C
b10010100 L
0H
1J
1%
b0 E
13
b100 D
1+
#1180000
0+
#1185000
11
1!
0#
0J
1%
b1 E
0I
03
b0 D
b101 B
b10010100 M
1+
#1190000
0+
#1195000
1%
0#
b10 E
b1 D
1+
#1200000
0+
#1205000
1%
0#
b11 E
b10 D
1+
#1210000
0+
#1215000
1%
0#
b100 E
b11 D
1+
#1220000
0+
#1225000
1H
1%
0#
b0 E
13
b100 D
1+
#1230000
0+
#1235000
1%
1#
b1 E
1I
03
b0 D
1+
#1240000
0+
#1245000
1%
b10 E
b1 D
1+
#1250000
0+
#1255000
1%
b11 E
b10 D
1+
#1260000
0+
#1265000
1%
b100 E
b11 D
1+
#1270000
0+
#1275000
b100 C
b101000 L
0H
1%
b0 E
13
b100 D
1+
#1280000
0+
#1285000
01
0!
1J
0#
1%
b1 E
0I
03
b0 D
b100 B
b101000 M
1+
#1290000
0+
#1295000
1J
1%
0#
b10 E
b1 D
1+
#1300000
0+
#1305000
1J
1%
0#
b11 E
b10 D
1+
#1310000
0+
#1315000
1J
1%
0#
b100 E
b11 D
1+
#1320000
0+
#1325000
1H
1J
1%
0#
b0 E
13
b100 D
1+
#1330000
0+
#1335000
1J
1%
1#
b1 E
1I
03
b0 D
1+
#1340000
0+
#1345000
1J
1%
b10 E
b1 D
1+
#1350000
0+
#1355000
1J
1%
b11 E
b10 D
1+
#1360000
0+
#1365000
1J
1%
b100 E
b11 D
1+
#1370000
0+
#1375000
b11 C
b1010000 L
0H
1J
1%
b0 E
13
b100 D
1+
#1380000
0+
#1385000
0#
1J
1%
b1 E
0I
03
b0 D
b11 B
b1010000 M
1+
#1390000
0+
#1395000
1J
1%
0#
b10 E
b1 D
1+
#1400000
0+
#1405000
1J
1%
0#
b11 E
b10 D
1+
#1410000
0+
#1415000
1J
1%
0#
b100 E
b11 D
1+
#1420000
0+
#1425000
1H
1J
1%
0#
b0 E
13
b100 D
1+
#1430000
0+
#1435000
1J
1%
1#
b1 E
1I
03
b0 D
1+
#1440000
0+
#1445000
1J
1%
b10 E
b1 D
1+
#1450000
0+
#1455000
1J
1%
b11 E
b10 D
1+
#1460000
0+
#1465000
1J
1%
b100 E
b11 D
1+
#1470000
0+
#1475000
b10 C
b10100000 L
0H
1J
1%
b0 E
13
b100 D
1+
#1480000
0+
#1485000
11
1!
0#
0J
1%
b1 E
0I
03
b0 D
b10 B
b10100000 M
1+
#1490000
0+
#1495000
1%
0#
b10 E
b1 D
1+
#1500000
0+
#1505000
1%
0#
b11 E
b10 D
1+
#1510000
0+
#1515000
1%
0#
b100 E
b11 D
1+
#1520000
0+
#1525000
1H
1%
0#
b0 E
13
b100 D
1+
#1530000
0+
#1535000
1%
1#
b1 E
1I
03
b0 D
1+
#1540000
0+
#1545000
1%
b10 E
b1 D
1+
#1550000
0+
#1555000
1%
b11 E
b10 D
1+
#1560000
0+
#1565000
1%
b100 E
b11 D
1+
#1570000
0+
#1575000
b1 C
b1000000 L
0H
1%
b0 E
13
b100 D
1+
#1580000
0+
#1585000
01
0!
1J
0#
1%
b1 E
0I
03
b0 D
b1 B
b1000000 M
1+
#1590000
0+
#1595000
1J
1%
0#
b10 E
b1 D
1+
#1600000
0+
#1605000
1J
1%
0#
b11 E
b10 D
1+
#1610000
0+
#1615000
1J
1%
0#
b100 E
b11 D
1+
#1620000
0+
#1625000
1H
1J
1%
0#
b0 E
13
b100 D
1+
#1630000
0+
#1635000
1J
1%
1#
b1 E
1I
03
b0 D
1+
#1640000
0+
#1645000
1J
1%
b10 E
b1 D
1+
#1650000
0+
#1655000
1J
1%
b11 E
b10 D
1+
#1660000
0+
#1665000
1J
1%
b100 E
b11 D
1+
#1670000
0+
#1675000
b0 C
b10000000 L
0H
1J
1%
b0 E
13
b100 D
1+
#1680000
0+
#1685000
11
1!
0#
0J
1%
b1 E
0I
03
b0 D
b0 B
b10000000 M
1+
#1690000
0+
#1695000
1%
0#
b10 E
b1 D
1+
#1700000
0+
#1705000
1%
0#
b11 E
b10 D
1+
#1710000
0+
#1715000
1%
0#
b100 E
b11 D
1+
#1720000
0+
#1725000
1H
1%
0#
b0 E
13
b100 D
1+
#1730000
0+
#1735000
1%
1#
b1 E
1I
03
b0 D
1+
#1740000
0+
#1745000
1%
b10 E
b1 D
1+
#1750000
0+
#1755000
1%
b11 E
b10 D
1+
#1760000
0+
#1765000
1%
b100 E
b11 D
1+
#1770000
0+
#1775000
b101 N
0H
1%
b0 E
13
b100 D
1+
#1780000
0+
#1785000
01
0!
0#
1%
b1 E
1"
0I
03
b0 D
b101 2
b101 O
1+
#1790000
0+
#1795000
1%
0#
b10 E
b1 D
1+
#1800000
0+
#1805000
1%
0#
b11 E
b10 D
1+
#1810000
0+
#1815000
1%
0#
b100 E
b11 D
1+
#1820000
0+
#1825000
1H
1%
0#
b0 E
13
b100 D
1+
#1830000
0+
#1835000
1%
1#
b1 E
1I
03
b0 D
1+
#1840000
0+
#1845000
1%
b10 E
b1 D
1+
#1850000
0+
#1855000
1%
b11 E
b10 D
1+
#1860000
0+
#1865000
1%
b100 E
b11 D
1+
#1870000
0+
#1875000
b110 N
0H
1%
b0 E
13
b100 D
1+
#1880000
0+
#1885000
01
0!
1J
1%
b1 E
0"
0I
03
b0 D
b110 2
b110 O
1+
#1890000
0+
#1895000
1J
1%
b10 E
b1 D
1+
#1900000
0+
#1905000
1J
1%
b11 E
b10 D
1+
#1910000
0+
#1915000
1J
1%
b100 E
b11 D
1+
#1920000
0+
#1925000
1P
1J
1%
b0 E
13
b100 D
1+
#1930000
0+
#1935000
11
1!
0J
1%
b1 E
1Q
03
b0 D
1+
#1940000
0+
#1945000
0J
1%
b10 E
b1 D
1+
#1950000
0+
#1955000
0J
1%
b11 E
b10 D
1+
#1960000
0+
#1965000
0J
1%
b100 E
b11 D
1+
#1970000
0+
#1975000
b111 N
0J
1%
b0 E
13
b100 D
1+
#1980000
0+
#1985000
b0 N
0P
1$
0%
b1 E
03
b0 D
b111 2
b111 O
1+
#1990000
0+
#1995000
0?
0$
b10 E
0Q
b1 D
b0 2
b0 O
1+
#2000000
0+
#2005000
b11 E
0>
b10 D
1+
#2010000
0+
#2015000
b100 E
b11 D
1+
#2020000
0+
#2025000
b0 E
13
b100 D
1+
#2030000
0+
#2035000
b1 E
03
b0 D
1+
#2040000
0+
#2045000
b10 E
b1 D
1+
