labs/lab00/src/p0_punto1/p0_pt1_wave.vcd
$date
	Wed Mar  4 12:53:06 2026
$end
$version
	Icarus Verilog
$end
$timescale
	1ps
$end
$scope module tb_p0_pt1 $end
$var wire 1 ! yellow $end
$var wire 1 " red $end
$var wire 1 # green $end
$var reg 1 $ clk $end
$var reg 1 % rst $end
$scope module dut $end
$var wire 1 $ clk $end
$var wire 1 % rst $end
$var parameter 2 & S0_VERDE $end
$var parameter 2 ' S1_AMARILLO $end
$var parameter 2 ( S2_ROJO $end
$var reg 1 # green $end
$var reg 1 " red $end
$var reg 2 ) state_next [1:0] $end
$var reg 2 * state_reg [1:0] $end
$var reg 3 + timer_next [2:0] $end
$var reg 3 , timer_reg [2:0] $end
$var reg 1 ! yellow $end
$upscope $end
$upscope $end
$enddefinitions $end
$comment Show the parameter values. $end
$dumpall
b10 (
b1 '
b0 &
$end
#0
$dumpvars
b1 ,
b10 +
b0 *
b0 )
1%
0$
1#
0"
0!
$end
#5000
1$
#10000
0$
#15000
1$
#20000
0$
0%
#25000
1#
b11 +
b10 ,
1$
#30000
0$
#35000
1#
b100 +
b11 ,
1$
#40000
0$
#45000
1#
b101 +
b100 ,
1$
#50000
0$
#55000
b1 )
1#
b1 +
b101 ,
1$
#60000
0$
#65000
1!
0#
b10 +
b1 ,
b1 *
1$
#70000
0$
#75000
b10 )
1!
b1 +
b10 ,
1$
#80000
0$
#85000
1"
0!
b10 +
b1 ,
b10 *
1$
#90000
0$
#95000
1"
b11 +
b10 ,
1$
#100000
0$
#105000
1"
b100 +
b11 ,
1$
#110000
0$
#115000
b0 )
1"
b1 +
b100 ,
1$
#120000
0$
#125000
1#
0"
b10 +
b1 ,
b0 *
1$
#130000
0$
#135000
1#
b11 +
b10 ,
1$
#140000
0$
#145000
1#
b100 +
b11 ,
1$
#150000
0$
#155000
1#
b101 +
b100 ,
1$
#160000
0$
#165000
b1 )
1#
b1 +
b101 ,
1$
#170000
0$
#175000
1!
0#
b10 +
b1 ,
b1 *
1$
#180000
0$
#185000
b10 )
1!
b1 +
b10 ,
1$
#190000
0$
#195000
1"
0!
b10 +
b1 ,
b10 *
1$
#200000
0$
#205000
1"
b11 +
b10 ,
1$
#210000
0$
#215000
1"
b100 +
b11 ,
1$
#220000
0$
#225000
b0 )
1"
b1 +
b100 ,
1$
#230000
0$
#235000
1#
0"
b10 +
b1 ,
b0 *
1$
#240000
0$
#245000
1#
b11 +
b10 ,
1$
#250000
0$
#255000
1#
b100 +
b11 ,
1$
#260000
0$
#265000
1#
b101 +
b100 ,
1$
