labs/lab00/src/p0_punto2/p0_pt2_wave.vcd
$date
	Wed Mar  4 12:35:34 2026
$end
$version
	Icarus Verilog
$end
$timescale
	1ps
$end
$scope module tb_p0_pt2 $end
$var wire 1 ! done $end
$var wire 6 " acc [5:0] $end
$var reg 1 # clk $end
$var reg 1 $ rst $end
$var reg 1 % start $end
$var reg 4 & x [3:0] $end
$scope module dut $end
$var wire 1 # clk $end
$var wire 1 $ rst $end
$var wire 1 % start $end
$var wire 4 ' x [3:0] $end
$var parameter 2 ( ADD $end
$var parameter 2 ) DONE $end
$var parameter 2 * IDLE $end
$var parameter 2 + LOAD $end
$var reg 6 , acc [5:0] $end
$var reg 6 - acc_next [5:0] $end
$var reg 6 . acc_reg [5:0] $end
$var reg 2 / count_next [1:0] $end
$var reg 2 0 count_reg [1:0] $end
$var reg 1 ! done $end
$var reg 2 1 state_next [1:0] $end
$var reg 2 2 state_reg [1:0] $end
$upscope $end
$upscope $end
$enddefinitions $end
$comment Show the parameter values. $end
$dumpall
b1 +
b0 *
b11 )
b10 (
$end
#0
$dumpvars
b0 2
b0 1
b0 0
b0 /
b0 .
b0 -
b0 ,
b0 '
b0 &
0%
1$
0#
b0 "
0!
$end
#5000
1#
#10000
0#
#15000
1#
#20000
0#
0$
#25000
1#
#30000
b1 1
0#
1%
b11 &
b11 '
#35000
b10 1
b1 2
1#
#40000
b10 1
0#
0%
#45000
b1 /
b11 -
b10 2
1#
#50000
0#
#55000
b10 /
b110 -
b11 "
b11 ,
b1 0
b11 .
1#
#60000
0#
#65000
b11 /
b1001 -
b110 "
b110 ,
b10 0
b110 .
1#
#70000
0#
#75000
b11 1
b1100 -
b1001 "
b1001 ,
b11 0
b1001 .
1#
#80000
0#
#85000
b0 1
1!
b1100 "
b1100 ,
b1100 .
b11 2
1#
#90000
0#
#95000
0!
b0 2
1#
#100000
0#
#105000
b0 /
b0 -
b1 2
b10 1
1#
1%
b110 &
b110 '
#110000
0#
#115000
b0 "
b0 ,
b0 0
b0 .
b10 2
b1 /
b110 -
b10 1
1#
0%
#120000
0#
#125000
b10 /
b1100 -
b110 "
b110 ,
b1 0
b110 .
1#
#130000
0#
#135000
b11 /
b10010 -
b1100 "
b1100 ,
b10 0
b1100 .
1#
#140000
0#
#145000
b11 1
b11000 -
b10010 "
b10010 ,
b11 0
b10010 .
1#
#150000
0#
#155000
b0 1
1!
b11000 "
b11000 ,
b11000 .
b11 2
1#
#160000
0#
#165000
0!
b0 2
1#
